<?xml version="1.0" encoding="utf-8"?>
<!-- Generator: Adobe Illustrator 15.0.2, SVG Export Plug-In . SVG Version: 6.00 Build 0)  -->
<!DOCTYPE svg PUBLIC "-//W3C//DTD SVG 1.1//EN" "http://www.w3.org/Graphics/SVG/1.1/DTD/svg11.dtd">
<svg version="1.1" id="Layer_1" xmlns="http://www.w3.org/2000/svg" xmlns:xlink="http://www.w3.org/1999/xlink" x="0px" y="0px"
	 width="245px" height="164px" viewBox="0 0 245 164" enable-background="new 0 0 245 164" xml:space="preserve">
<g>
	<path fill="#00FF00" d="M63,0H0v164h245V0H63z M56,149H7v-16h49V149z M56,116H7v-16h49V116z M239,158H63V44.295
		c-0.228,0.17-0.462,0.33-0.688,0.503C55.134,50.268,48.896,57.113,44.118,65H56v16H7V65h31.335
		c5.755-10.41,13.87-19.255,23.354-25.928c0.43-0.304,0.872-0.59,1.31-0.886V6h176L239,158L239,158z"/>
	<path fill="#00FF00" d="M105.25,30.418c20.502,0.624,37.227,11.333,47.682,30.336l-18.22-7.47c-1.28-0.526-2.737,0.087-3.262,1.365
		c-0.524,1.276,0.087,2.737,1.364,3.26l28.998,11.89l-0.791-31.33c-0.031-1.38-1.14-2.456-2.56-2.437
		c-1.382,0.035-2.474,1.182-2.44,2.562l0.463,18.33c-11.34-19.487-29.573-30.85-51.084-31.505
		C90.496,24.964,75.614,29.686,63,38.186v6.11c12.315-9.163,27.274-14.333,42.25-13.88V30.418z"/>
</g>
<path fill="#00FF00" d="M136,74h49v16h-49V74z"/>
</svg>
