<?xml version="1.0" encoding="utf-8"?>
<!-- Generator: Adobe Illustrator 15.0.2, SVG Export Plug-In . SVG Version: 6.00 Build 0)  -->
<!DOCTYPE svg PUBLIC "-//W3C//DTD SVG 1.1//EN" "http://www.w3.org/Graphics/SVG/1.1/DTD/svg11.dtd">
<svg version="1.1" id="base_28x7" xmlns="http://www.w3.org/2000/svg" xmlns:xlink="http://www.w3.org/1999/xlink" x="0px" y="0px"
	 width="140px" height="35px" viewBox="-16.5 151 140 35" enable-background="new -16.5 151 140 35" xml:space="preserve">
<rect x="-14.5" y="151" fill="#FF0000" stroke="#000000" stroke-width="0.7" stroke-linejoin="round" stroke-miterlimit="10" width="136" height="3"/>
<polygon fill="#00FF00" stroke="#000000" stroke-width="0.7" stroke-linejoin="round" stroke-miterlimit="10" points="-16.5,186 
	-16.5,153.779 123.5,153.779 123.5,186 117.1,186 117.1,160.001 -10.1,160.001 -10.1,186 "/>
</svg>
