<?xml version="1.0" encoding="utf-8"?>
<!-- Generator: Adobe Illustrator 15.0.2, SVG Export Plug-In . SVG Version: 6.00 Build 0)  -->
<!DOCTYPE svg PUBLIC "-//W3C//DTD SVG 1.1//EN" "http://www.w3.org/Graphics/SVG/1.1/DTD/svg11.dtd">
<svg version="1.1" id="Layer_1" xmlns="http://www.w3.org/2000/svg" xmlns:xlink="http://www.w3.org/1999/xlink" x="0px" y="0px"
	 width="15px" height="30px" viewBox="0 0 15 30" enable-background="new 0 0 15 30" xml:space="preserve">
<g>
	<path fill="#00FF00" stroke="#000000" stroke-width="0.353" stroke-linecap="round" stroke-linejoin="round" d="M9.25,8.8L9.25,8.8
		c0-0.967-0.783-1.75-1.75-1.75c-0.966,0-1.75,0.783-1.75,1.75s0.784,1.75,1.75,1.75C8.467,10.55,9.25,9.767,9.25,8.8L9.25,8.8"/>
	<path fill="#00FF00" stroke="#000000" stroke-width="0.353" stroke-linecap="round" stroke-linejoin="round" d="M9.25,15.2
		L9.25,15.2c0-0.966-0.783-1.75-1.75-1.75c-0.966,0-1.75,0.784-1.75,1.75c0,0.968,0.784,1.75,1.75,1.75
		C8.467,16.95,9.25,16.168,9.25,15.2L9.25,15.2"/>
	<path fill="#00FF00" stroke="#000000" stroke-width="0.353" stroke-linecap="round" stroke-linejoin="round" d="M9.25,21.2
		L9.25,21.2c0-0.966-0.783-1.751-1.75-1.751c-0.966,0-1.75,0.785-1.75,1.751s0.784,1.749,1.75,1.749
		C8.467,22.949,9.25,22.166,9.25,21.2L9.25,21.2"/>
</g>
</svg>
